What the Package Does (One Line, Title Case) • iCAREstudy
…
The examples are based on a fabricated data set included in this package. The data contains the same variable names as the original study in order to help users orient themselves. The complete data dictionaries are available at: https://osf.io/v8xk5/.

library(iCAREstudy)
library(tidyverse) # for now the functions still require the user to load tidyverse
#> ── Attaching packages ─────────────────────────────────────── tidyverse 1.3.0 ──
#> ✓ ggplot2 3.3.3     ✓ purrr   0.3.4
#> ✓ tibble  3.1.0     ✓ dplyr   1.0.5
#> ✓ tidyr   1.1.3     ✓ stringr 1.4.0
#> ✓ readr   1.4.0     ✓ forcats 0.5.1
#> ── Conflicts ────────────────────────────────────────── tidyverse_conflicts() ──
#> x dplyr::filter() masks stats::filter()
#> x dplyr::lag()    masks stats::lag()

iCARE
#> # A tibble: 2,000 x 19
#>    startdate   wave startlanguage   sex age_yrs   edu concern_sq001
#>    <date>     <dbl> <chr>         <dbl>   <dbl> <dbl>         <dbl>
#>  1 2021-03-01     1 it                1      36     3             1
#>  2 2020-04-01     1 fr                1      85     3             3
#>  3 2020-07-01     6 es                1      41     2             2
#>  4 2020-04-01     1 de                1      76     5             2
#>  5 2020-06-01     1 it                1      58     2             2
#>  6 2020-12-01     2 en                2      37     3            NA
#>  7 2020-03-01     2 en                1      51     2             2
#>  8 2020-10-01     3 en                1      59     4             1
#>  9 2020-06-01     1 es                3      46     4             2
#> 10 2020-10-01     1 it                1      40     4             1
#> # … with 1,990 more rows, and 12 more variables: concern_sq002 <dbl>,
#> #   concern_sq003 <dbl>, concern_sq004 <dbl>, concern_sq005 <dbl>,
#> #   impacvd_sq001 <dbl>, impacvd_sq002 <dbl>, impacvd_sq003 <dbl>,
#> #   impacvd_sq004 <dbl>, hecond_sq001 <dbl>, hecond_sq002 <dbl>,
#> #   hecond_sq003 <dbl>, month <chr>
…
